%!PS
% Edit these items to suit your individual needs.
/ExerciseName (Bench Press) def

% Minimum weight cannot be 0
% A standard Olympic barbell is 45 pounds without any weight plates
/MinimumWeight 45 def

% Generally set MaximumWeight to about 3-7 times MinimumWeight to get a convenient graph size
% Yet high enough that your 1 rep max will be less than MaximumWeight
/MaximumWeight 225 def

% Tic marks show where a given weight is on the graph
% Major tic marks have a text label next to them
% Minor tic marks have only a small line
% MajorTicMarkInterval is how many pounds (or kg) between major tic marks
/MajorTicMarkInterval 25 def
% MinorTicMarkOffset is an array of the additional weight above the last Major Tic Mark.
% For free weights this is the smallest plate size
% For machines it is the weights of the small plates that can be added to the top of the stack
% Include 0 at the start of the array to make the Major Tic Mark visible
/MinorTicMarkInterval [0 5 5 5 5] def

% MuscleFatigueFactor is the ratio of weights that can be maximally lifted for N and N-1 reps for any value of N
% This is a good average value for most individuals and most muscle groups.
% You may find a slightly lower value for large muscles (such as legs)
% or a slightly higher value for small muscles (arms) to be more accurate.
/MuscleFatigueFactor 0.9722 def

% Optionally edit these items if you want to change the appearance of the chart
% All dimensions are in points; one point is 1/72 inch (0.353mm)
/Margin 36 def
/MonthBoxHeight 18 def
/DateBoxHeight 18 def

% Text sizes
/TitleFontSize 15 def
/MonthFontSize 12 def
/GraphLabelFontSize 10 def

% Boldness of major and minor graph lines
/LineWidth 2 def
/FineLineWidth 0 def

% Color specification from 0-1
/LineRed 0.5 def
/LineGreen 0.9 def
/LineBlue 0.5 def

% Month names. Edit if you want these in a different language.
/Months [(January) (February) (March) (April) (May) (June) (July) (August) (September) (October) (November) (December)] def
% End of items for user to edit. Just program code below.



% Function to get bounds of text at top of stack. Sets 4 variables for lower left and upper right x and y coordinates
/GetTextBounds {gsave
		0 0 moveto
		true charpath flattenpath pathbbox
		/URY exch def
		/URX exch def
		/LLY exch def
		/LLX exch def
		grestore
	       } bind def

% Function to convert array of strings to one  [(a) (b) ... (z)] --> (ab...z)  
/ConcatStringArray { 0 1 index { length add } forall
		     string     
		     0 3 2 roll      
		     { 3 copy putinterval
		       length add 
		     } forall
		     pop  
		   } bind def

% Function to figure out what y axis coordinate corresponds to a given weight
/ConvertWeightToPosition {MinimumWeight sub MaximumWeight MinimumWeight sub div GraphHeight mul} bind def

/PageWidth  currentpagedevice /PageSize get 0 get def
/PageHeight currentpagedevice /PageSize get 1 get def

% Function to draw the tic marks, small lines along the graph y axis to locate numbers
/DrawTic {dup
	  GraphHeight lt
	  {0 exch moveto
	   -2 0 rlineto}
	  {pop}
	  ifelse
	 } bind def


% Set left and top margin, landscape orientation
Margin Margin translate
90 rotate
/PrintWidth PageHeight Margin 2 mul sub def

% Write title with Exercise Name
/Helvetica findfont
TitleFontSize scalefont
setfont
0 0 0 setrgbcolor
newpath
ExerciseName GetTextBounds
/TitleHeight URY LLY sub def
0 TitleHeight neg moveto
ExerciseName show

% Calculate indent to leave room for 4 digit graph lables.
% Set origin to top left of month box indented
/Helvetica findfont
GraphLabelFontSize scalefont
setfont
(0000) GetTextBounds
/Indent URX LLX sub 5 add def
/LabelHeight URY LLY sub def
Indent LLY URY sub 1 sub translate
/GraphWidth PrintWidth Indent sub def

% Draw box for months
LineRed LineGreen LineBlue setrgbcolor
LineWidth setlinewidth
/Helvetica findfont
MonthFontSize scalefont
setfont
Months ConcatStringArray GetTextBounds
0 LLY URY sub 1 sub translate
newpath
0 0 moveto
GraphWidth 0 rlineto
0 MonthBoxHeight neg rlineto
GraphWidth neg 0 rlineto
closepath
stroke

% Write in the months
0 0 0 setrgbcolor
newpath
/InterMonthSpace GraphWidth URX LLX sub sub 11 div def
URY LLY sub 2 div MonthBoxHeight 2 div add neg 0 exch moveto
Months {show
	InterMonthSpace 0 rmoveto
       } forall

% Set origin to top left of Date Box
% and draw boxes for dates
0 MonthBoxHeight neg translate
LineRed LineGreen LineBlue setrgbcolor
LineWidth setlinewidth
newpath
0 DateBoxHeight neg moveto
GraphWidth 0 rlineto
stroke
/DateBoxWidth GraphWidth 52 div def
0 1 52 {dup
	newpath
	4 mod 0 eq
	{LineWidth}
	{FineLineWidth}
	ifelse
	setlinewidth
	DateBoxWidth mul 0 moveto
	0 DateBoxHeight neg rlineto
	stroke
       } for

% Set origin to bottom left of graph
% and draw the graph
/GraphHeight PageWidth Margin sub TitleHeight sub MonthBoxHeight sub DateBoxHeight sub 10 sub Margin sub def

0 DateBoxHeight 10 add GraphHeight add LabelHeight 2 div sub neg translate
LineRed LineGreen LineBlue setrgbcolor
LineWidth setlinewidth
newpath
0 0 moveto
GraphWidth 0 rlineto
0 GraphHeight rlineto
GraphWidth neg 0 rlineto
closepath
stroke
1 1 51 {dup
	newpath
	4 mod 0 eq
	{LineWidth}
	{FineLineWidth}
	ifelse
	setlinewidth
	DateBoxWidth mul 0 moveto
	0 GraphHeight rlineto
	stroke
       } for
/NumberOfRepBoxes MinimumWeight MaximumWeight div ln MuscleFatigueFactor ln div 1 add def
/RepBoxHeight GraphHeight NumberOfRepBoxes div def
1 1 NumberOfRepBoxes {dup
		      newpath
		      5 mod 0 eq
		      {LineWidth}
		      {FineLineWidth}
		      ifelse
		      setlinewidth
		      RepBoxHeight mul 0 exch moveto
		      GraphWidth 0 rlineto
		      stroke
		     } for

% Draw the tic marks
0 0 0 setrgbcolor
LineWidth setlinewidth
newpath
MinimumWeight MajorTicMarkInterval MaximumWeight {dup
						  MaximumWeight ne
						  {MinorTicMarkInterval {
						       add dup
						       ConvertWeightToPosition
						       DrawTic
						   } forall
						   pop
						  }
						  {ConvertWeightToPosition
						   DrawTic
						  }
						  ifelse
						 } for
stroke

% Draw the labels
/Helvetica findfont
GraphLabelFontSize scalefont
setfont
newpath
MinimumWeight MajorTicMarkInterval MaximumWeight {dup
						  (0000) cvs GetTextBounds
						  /LabelWidth URX LLX sub def						  
						  dup
						  ConvertWeightToPosition
						  LabelHeight 2 div sub
						  LabelWidth 5 add neg exch moveto
						  (0000) cvs show
						 } for
showpage
